{
	"appuie": {
		"18": {
			"cmd_val": 0
		}
	},
	"relache": "",
	"sequence": {
		"eteindre": {
			"message": "arret demande",
			"sequence": [
				18,
				18,
				18
			],
			"commande": [
				"espeak",
				"coucou",
				"type":
				"CMD"
			]
		}
	}
}

	
