{
	"WEB": {
		"port": "8082",
		"service": {
			"retour_home": 1,
			"template": "page_info.tpl",
            "template2": "page_demo.tpl"
		}
	},
	"INTERACTION": {
		"font_list": []
	},
	"EXEMPLE": {
		"TEXTE": [],
		"TEMPERATURE": []
	}
}
