{
	"ECRAN": {
		"gpio_pin_rst": 24,
		"i2c_bus": 1,
		"i2c_address": "0x3D"
	},
	"WEB": {
		"port": "8082",
		"service": {
			"retour_home": 1
		}
	},
	"INTERACTION": {
		"font_list": ["04B_30__.TTF"]
	}
}
